<svg xmlns="http://www.w3.org/2000/svg" width="1440" height="324" viewBox="0 0 1440 324">
    <g fill="none" fill-rule="evenodd">
        <path fill="#1AAEB7" d="M-73.59 132.528C-13.933 98.568 222.002-25.498 371.002 5.002c149 30.5 700 152.515 795 136 63.333-11.01 161.951-36.509 295.854-76.494l19.318 200.583H-43.998c-59.499-65.735-69.362-109.923-29.592-132.563z"/>
        <path fill="#32D5DD" d="M.002 187.002c59.656-33.96 422-91.5 571-61s503 63.53 598 47.015c63.333-11.01 160.857-24.507 292.57-40.49l19.602 236.936H-43.998c-10.438-99 4.229-159.821 44-182.461z"/>
    </g>
</svg>
