<?xml version="1.0" encoding="UTF-8"?>
<svg width="18px" height="16px" viewBox="0 0 18 16" version="1.1" xmlns="http://www.w3.org/2000/svg" xmlns:xlink="http://www.w3.org/1999/xlink">
    <!-- Generator: Sketch 64 (93537) - https://sketch.com -->
    <title>Picto / Simulation</title>
    <desc>Created with Sketch.</desc>
    <defs>
        <rect id="path-1" x="0" y="0" width="18" height="17"></rect>
    </defs>
    <g id="Symbols" stroke="none" stroke-width="1" fill="none" fill-rule="evenodd">
        <g id="Icon-/-Simulation" transform="translate(0.000000, -1.000000)">
            <g id="Picto-/-Simulation">
                <mask id="mask-2" fill="white">
                    <use xlink:href="#path-1"></use>
                </mask>
                <g id="Mask" fill-rule="nonzero"></g>
                <g id="filter" mask="url(#mask-2)" fill="#444444" fill-rule="nonzero">
                    <g transform="translate(9.000000, 9.000000) rotate(90.000000) translate(-9.000000, -9.000000) translate(1.000000, 0.000000)" id="Shape">
                        <path d="M3.03721683,16.5423074 C3.03721683,17.0630503 3.44498382,17.4705882 3.96601942,17.4705882 C4.48705502,17.4705882 4.89482201,17.0630503 4.89482201,16.5423074 L4.89482201,7.43491563 C6.38996764,7.0273777 7.5,5.66891792 7.5,4.03876619 C7.5,2.11428151 5.9368932,0.529411765 3.98867314,0.529411765 C2.04045307,0.529411765 0.5,2.11428151 0.5,4.03876619 C0.5,5.64627693 1.58737864,7.0047367 3.05987055,7.41227464 L3.05987055,16.5423074 L3.03721683,16.5423074 Z M2.31229773,4.03876619 C2.31229773,3.13312634 3.05987055,2.38597346 3.96601942,2.38597346 C4.87216828,2.38597346 5.6197411,3.13312634 5.6197411,4.03876619 C5.6197411,4.94440604 4.87216828,5.69155892 3.96601942,5.69155892 C3.05987055,5.69155892 2.31229773,4.94440604 2.31229773,4.03876619 Z"></path>
                        <path d="M11.0516129,1.45659117 L11.0516129,6.73682116 C9.58387097,7.14387553 8.5,8.50072343 8.5,10.1063268 C8.5,11.7119301 9.58387097,13.068778 11.0516129,13.4758324 L11.0516129,16.5434088 C11.0516129,17.0635339 11.4580645,17.4705882 11.9774194,17.4705882 C12.4967742,17.4705882 12.9032258,17.0635339 12.9032258,16.5434088 L12.9032258,13.4758324 C14.3935484,13.068778 15.5,11.7119301 15.5,10.0837127 C15.5,8.45549517 14.3935484,7.09864726 12.9032258,6.69159289 L12.9032258,1.45659117 C12.9032258,0.936466136 12.4967742,0.529411765 11.9774194,0.529411765 C11.4580645,0.529411765 11.0516129,0.936466136 11.0516129,1.45659117 Z M13.6709677,10.1063268 C13.6709677,11.0108921 12.9258065,11.7571584 12.0225806,11.7571584 C11.1193548,11.7571584 10.3741935,11.0108921 10.3741935,10.1063268 C10.3741935,9.20176152 11.1193548,8.45549517 12.0225806,8.45549517 C12.9258065,8.45549517 13.6709677,9.17914739 13.6709677,10.1063268 Z"></path>
                    </g>
                </g>
            </g>
        </g>
    </g>
</svg>