<svg xmlns="http://www.w3.org/2000/svg" width="40" height="40" viewBox="0 0 40 40">
    <g fill="none" fill-rule="evenodd">
        <path d="M25.217 11.993v.18c0 .481-.389.87-.87.87h-8.695a.87.87 0 0 1-.87-.87v-.18a9.633 9.633 0 0 0-2.789 2.79h.18c.481 0 .87.389.87.87v8.695c0 .48-.389.87-.87.87h-.18a9.633 9.633 0 0 0 2.79 2.789v-.18c0-.481.389-.87.87-.87h8.695c.48 0 .87.389.87.87v.18a9.633 9.633 0 0 0 2.789-2.79h-.18a.87.87 0 0 1-.87-.87v-8.695c0-.48.389-.87.87-.87h.18a9.633 9.633 0 0 0-2.79-2.789z"/>
        <path fill="#ED8B00" fill-rule="nonzero" d="M14.783 11.993V2.505A18.286 18.286 0 0 0 2.505 14.783h9.488a9.633 9.633 0 0 1 2.79-2.79zM28.007 14.783h9.488A18.286 18.286 0 0 0 25.217 2.505v9.488a9.633 9.633 0 0 1 2.79 2.79zM11.993 25.217H2.505a18.286 18.286 0 0 0 12.278 12.278v-9.488a9.633 9.633 0 0 1-2.79-2.79zM25.217 28.007v9.488a18.286 18.286 0 0 0 12.278-12.278h-9.488a9.633 9.633 0 0 1-2.79 2.79z"/>
        <path fill="#FFC72C" fill-rule="nonzero" d="M11.993 14.783H.87a.87.87 0 0 0-.87.87v8.695c0 .48.39.87.87.87h11.123A9.502 9.502 0 0 1 10.435 20c0-1.925.576-3.715 1.558-5.217zM20 29.565a9.502 9.502 0 0 1-5.217-1.558V39.13c0 .48.389.87.87.87h8.695c.48 0 .87-.39.87-.87V28.007A9.502 9.502 0 0 1 20 29.565zM39.13 14.783H28.007A9.502 9.502 0 0 1 29.565 20a9.502 9.502 0 0 1-1.558 5.217H39.13c.48 0 .87-.389.87-.87v-8.695a.87.87 0 0 0-.87-.87zM24.348 0h-8.696a.87.87 0 0 0-.87.87v11.123A9.502 9.502 0 0 1 20 10.435c1.925 0 3.715.576 5.217 1.558V.87a.87.87 0 0 0-.87-.87z"/>
    </g>
</svg>
