<svg xmlns="http://www.w3.org/2000/svg" xmlns:xlink="http://www.w3.org/1999/xlink" width="42" height="43" viewBox="0 0 42 43">
    <defs>
        <path id="sos0hwiaoa" d="M32.24.88v17.641c-1.408-.717-3.002-1.121-4.69-1.121-5.716 0-10.35 4.634-10.35 10.35 0 5.716 4.634 10.35 10.35 10.35 1.688 0 3.282-.404 4.69-1.121v4.901h-32V8.51L8.223.88H32.24z"/>
    </defs>
    <g fill="none" fill-rule="evenodd">
        <g>
            <g>
                <g transform="translate(-168 -452) translate(168 452)">
                    <mask id="nqjfw84pgb" fill="#fff">
                        <use xlink:href="#sos0hwiaoa"/>
                    </mask>
                    <g mask="url(#nqjfw84pgb)">
                        <g>
                            <path stroke="#1AAEB7" stroke-width="2" d="M7.544 0L30.24 0 30.24 38.88 0 38.88 0 7.235z" transform="translate(1 2)"/>
                            <path fill="#004B44" fill-rule="nonzero" stroke="#004B44" d="M19.869 14.4L15.3 18.969 10.731 14.4 9.9 15.231 14.469 19.8 9.9 24.369 10.731 25.2 15.3 20.631 19.869 25.2 20.7 24.369 16.131 19.8 20.7 15.231 19.869 14.4z" transform="translate(1 2)"/>
                            <path stroke="#1AAEB7" stroke-linejoin="round" stroke-width="2" d="M7.211 0L7.211 7.272 0 7.272" transform="translate(1 2)"/>
                        </g>
                    </g>
                </g>
                <g transform="translate(-168 -452) translate(168 452) translate(17.2 17.4)">
                    <path stroke="#004B44" stroke-linecap="square" stroke-width="2.7" d="M17.878 18.117L21.848 22.616" transform="rotate(-4 19.863 20.367)"/>
                    <circle cx="10.35" cy="10.35" r="9.35" stroke="#1AAEB7" stroke-width="2"/>
                </g>
            </g>
        </g>
    </g>
</svg>
