<svg xmlns="http://www.w3.org/2000/svg" width="30" height="31" viewBox="0 0 30 31">
    <g fill="none" fill-rule="evenodd">
        <g>
            <g>
                <g>
                    <g transform="translate(-35 -333) translate(20 320) translate(15 13.417) matrix(-1 0 0 1 30 0)">
                        <rect width="26.087" height="16.957" y="4.565" fill="#004B44" fill-rule="nonzero" rx="1.91"/>
                        <rect width="19.565" height="14.348" x="3.261" y="5.87" fill="#1AAEB7" fill-rule="nonzero" rx=".631"/>
                        <g>
                            <path fill="#FFF" fill-rule="nonzero" d="M0 0H15.652V10.435H0z" transform="matrix(-1 0 0 1 20.87 7.826)"/>
                            <g fill="#D8D8D8">
                                <path d="M6.522 0H7.522V7.826H6.522zM5.217 0H6.217V6.522H5.217zM3.913 0H4.913V7.174H3.913zM2.609 0H3.609V7.826H2.609zM1.304 0H2.3040000000000003V7.826H1.304zM0 0H1V3.913H0zM10.435 0H11.435V2.609H10.435zM10.435 5.87H11.435V7.827H10.435zM9.13 0H10.13V1.304H9.13z" transform="matrix(-1 0 0 1 20.87 7.826) translate(3.26 1.304)"/>
                            </g>
                        </g>
                        <path fill="#EEBC99" fill-rule="nonzero" d="M30 9.783l-5.256-7.008c-.395-.526-.973-.884-1.62-1.001L17.188.694l-.47-.042h-2.912c-1.07-.023-1.974.786-2.068 1.852-.029.537.165 1.062.535 1.452.37.39.884.61 1.422.61h2.608l5.218 1.304 2.608 4.565v7.826c0 1.8-1.46 3.26-3.26 3.26h-9.693c-1.016-.018-1.888.723-2.034 1.728-.119 1.03.585 1.974 1.606 2.153l5.885 1.269c.214.045.422.118.617.216l4.37 2.186c.363.181.763.275 1.169.275H30V9.783z"/>
                    </g>
                </g>
            </g>
        </g>
    </g>
</svg>
