{
  "id": "crs",
  "sysType": "crs",
  "screenOptions": {
    "duration-simulation": {
      "value": "36",
      "description": "example duration simulation"
    },
    "legal-notices": {
      "value": "https://recette.esigate.sofinco.fr/sites/partners/home.labelsAction.do?path=ln&partner=web-redoute&route=crs",
      "description": "legal notices link"
    },
    "credit-type": {
      "value": "REVOLVING",
      "description": "credit type (REVOLVING/LOAN)"
    },
    "amount-simulation": {
      "value": "1000",
      "description": "example amount simulation"
    },
    "messages-route": {
      "value": "https://recette.esigate.sofinco.fr/sites/partners/home.labelsAction.do?app=creditPartner&path=lb&partner=web-redoute&route=crs",
      "description": "route messages link"
    },
    "web2store-mail": {
      "value": "manual",
      "description": "specify how to send the web to store mail (auto/manual)"
    },
    "web2store-enabled": {
      "value": false,
      "description": "enable web to store feature"
    },
    "enable-experian-FraudNet": {
      "value": true,
      "description": "FraudNet Experian activation"
    }
  },
  "steps": [
    {
      "pathId": "creditFromScratch",
      "screenOptions": {},
      "noReturn": false,
      "routed": true,
      "steps": [
        {
          "pathId": "pedagogicSteps",
          "screenOptions": {
            "pedagogic-steps-key": {
              "value": "pedagogicSteps",
              "description": "key of pedagogic steps"
            },
            "pedagogic-steps-length": {
              "value": 3,
              "description": "length of pedagogic steps description"
            }
          },
          "noReturn": false,
          "routed": false,
          "steps": []
        },
        {
          "pathId": "attachments",
          "screenOptions": {
            "attachments-length": {
              "value": 3,
              "description": "length of attachments"
            },
            "attachments-key": {
              "value": "attachments.documents",
              "description": "key of attachments"
            }
          },
          "noReturn": false,
          "routed": false,
          "steps": []
        },
        {
          "pathId": "downloadPrecontract",
          "screenOptions": {},
          "noReturn": false,
          "routed": false,
          "steps": []
        }
      ]
    },
    {
      "pathId": "subscription",
      "screenOptions": {
        "coBorrowerDisplayed": {
          "value": false,
          "description": "whether the user can see the co-borrower"
        }
      },
      "noReturn": false,
      "routed": true,
      "steps": [
        {
          "pathId": "informationBloc",
          "screenOptions": {
            "label": {
              "value": "souscription.menuNavigation.blocInformation",
              "description": "label key in Jahia"
            },
            "type": {
              "value": "category",
              "description": ""
            }
          },
          "noReturn": false,
          "routed": true,
          "steps": [
            {
              "pathId": "name",
              "screenOptions": {
                "label": {
                  "value": "souscription.menuNavigation.votreNom",
                  "description": "label key in Jahia"
                },
                "type": {
                  "value": "form",
                  "description": ""
                }
              },
              "noReturn": false,
              "routed": true,
              "steps": []
            },
            {
              "pathId": "contact",
              "screenOptions": {
                "label": {
                  "value": "souscription.menuNavigation.vosCoordonnes",
                  "description": "label key in Jahia"
                },
                "type": {
                  "value": "form",
                  "description": ""
                }
              },
              "noReturn": false,
              "routed": true,
              "steps": []
            }
          ]
        },
        {
          "pathId": "situationBloc",
          "screenOptions": {
            "label": {
              "value": "souscription.menuNavigation.blocSituation",
              "description": "label key in Jahia"
            },
            "type": {
              "value": "category",
              "description": ""
            }
          },
          "noReturn": false,
          "routed": true,
          "steps": [
            {
              "pathId": "civility",
              "screenOptions": {
                "label": {
                  "value": "souscription.menuNavigation.votreCivilite",
                  "description": "label key in Jahia"
                },
                "type": {
                  "value": "form",
                  "description": ""
                }
              },
              "noReturn": false,
              "routed": true,
              "steps": []
            },
            {
              "pathId": "family",
              "screenOptions": {
                "label": {
                  "value": "souscription.menuNavigation.situationFamiliale",
                  "description": "label key in Jahia"
                },
                "type": {
                  "value": "form",
                  "description": ""
                }
              },
              "noReturn": false,
              "routed": true,
              "steps": []
            },
            {
              "pathId": "housing",
              "screenOptions": {
                "label": {
                  "value": "souscription.menuNavigation.votreAdresse",
                  "description": "label key in Jahia"
                },
                "type": {
                  "value": "form",
                  "description": ""
                }
              },
              "noReturn": false,
              "routed": true,
              "steps": []
            }
          ]
        },
        {
          "pathId": "incomesBloc",
          "screenOptions": {
            "label": {
              "value": "souscription.menuNavigation.votreBudget",
              "description": "label key in Jahia"
            },
            "type": {
              "value": "category",
              "description": ""
            }
          },
          "noReturn": false,
          "routed": true,
          "steps": [
            {
              "pathId": "employment",
              "screenOptions": {
                "label": {
                  "value": "souscription.menuNavigation.votreTravail",
                  "description": "label key in Jahia"
                },
                "type": {
                  "value": "form",
                  "description": ""
                }
              },
              "noReturn": false,
              "routed": true,
              "steps": []
            },
            {
              "pathId": "incomes",
              "screenOptions": {
                "label": {
                  "value": "souscription.menuNavigation.vosRevenus",
                  "description": "label key in Jahia"
                },
                "type": {
                  "value": "form",
                  "description": ""
                }
              },
              "noReturn": false,
              "routed": true,
              "steps": []
            },
            {
              "pathId": "charges",
              "screenOptions": {
                "label": {
                  "value": "souscription.menuNavigation.vosCharges",
                  "description": "label key in Jahia"
                },
                "type": {
                  "value": "form",
                  "description": ""
                }
              },
              "noReturn": false,
              "routed": true,
              "steps": []
            }
          ]
        },
        {
          "pathId": "card",
          "screenOptions": {
            "preselected": {
              "value": true,
              "description": "preselected card"
            },
            "card-code": {
              "value": "E",
              "description": "card code"
            },
            "documentUrl": {
              "value": "https://recette.esigate.sofinco.fr/sites/partners/home.documentsAction.do?q6=web_redoute&p=/cartes/informations-carte.pdf",
              "description": "card informations document"
            },
            "label": {
              "value": "souscription.menuNavigation.votreCarte",
              "description": "label key in Jahia"
            }
          },
          "noReturn": false,
          "routed": true,
          "steps": [
            {
              "pathId": "advantages",
              "screenOptions": {
                "advantages-key": {
                  "value": "souscription.carte.avantages",
                  "description": "key of card advantages"
                },
                "advantages-length": {
                  "value": 6,
                  "description": "length of card advantages"
                }
              },
              "noReturn": false,
              "routed": false,
              "steps": []
            }
          ]
        },
        {
          "pathId": "insurance",
          "screenOptions": {
            "limit-young": {
              "value": "59",
              "description": "limit young for insurance"
            },
            "limit-senior": {
              "value": "65",
              "description": "limit young for insurance"
            },
            "documentUrl": {
              "value": "https://recette.esigate.sofinco.fr/sites/partners/home.documentsAction.do?q6=web_redoute&p=/assurances/informations-assurance-rev.pdf",
              "description": "insurance informations document"
            },
            "max-age": {
              "value": "84",
              "description": "max age for insurance"
            },
            "label": {
              "value": "souscription.menuNavigation.votreAssurance",
              "description": "label key in Jahia"
            },
            "min-age": {
              "value": "18",
              "description": "min age for insurance"
            }
          },
          "noReturn": false,
          "routed": true,
          "steps": []
        },
        {
          "pathId": "summary",
          "screenOptions": {
            "label": {
              "value": "souscription.menuNavigation.ficheDialogue",
              "description": "label key in Jahia"
            }
          },
          "noReturn": false,
          "routed": true,
          "steps": []
        },
        {
          "pathId": "loading",
          "screenOptions": {},
          "noReturn": false,
          "routed": true,
          "steps": []
        },
        {
          "pathId": "result",
          "screenOptions": {
            "label": {
              "value": "souscription.menuNavigation.reponsePrincipe",
              "description": "label key in Jahia"
            }
          },
          "noReturn": false,
          "routed": true,
          "steps": []
        }
      ]
    }
  ],
  "_links": {
    "self": "http://localhost:8080/remoting/rest/applications/creditPartner/partners/web_redoute/routes/crs",
    "parameters": "http://localhost:8080/remoting/rest/applications/creditPartner/partners/web_redoute/routes/crs/parameters/"
  }
}
