{
  "defaultSeverity": "warning",
  "extends": ["tslint:recommended", "tslint-config-prettier"],
  "linterOptions": {
    "exclude": ["node_modules/**", "**/*.json", "tests/unit/**"]
  },
  "rules": {
    "array-type": false,
    "no-string-literal": false,
    "quotemark": [true, "single", "avoid-escape"],
    "indent": [true, "spaces", 2],
    "interface-name": false,
    "ordered-imports": false,
    "object-literal-sort-keys": false,
    "no-consecutive-blank-lines": false,
    "trailing-comma": [true, { "multiline": "never", "singleline": "never" }],
    "arrow-parens": false,
    "max-line-length": [true, 240],
    "no-empty": false
  }
}
