<svg xmlns="http://www.w3.org/2000/svg" width="13" height="19" viewBox="0 0 13 19">
    <g fill="none" fill-rule="evenodd" stroke="#888">
        <path stroke-width="1.211" d="M.605 7.064h11.706v10.9H.605z"/>
        <path stroke-width="1.211" d="M2.422 7.649V4.844a4.037 4.037 0 1 1 8.073 0v2.705"/>
        <path stroke-linecap="round" stroke-width="1.615" d="M6.458 11.302v2.422"/>
    </g>
</svg>
