{
  "title": "souscription.assurancev2.alternative.titre",
  "image": "souscription.assurancev2.alternative.image",
  "importance": "souscription.assurancev2.alternative.importance",
  "shortWarranties": "souscription.assurancev2.alternative.garantiesResume",
  "warranties": "souscription.assurancev2.alternative.garanties",
  "warrantiesTitle": "souscription.assurancev2.alternative.titreGaranties",
  "commonWarranties": null,
  "specificWarrantiesTitle": null,
  "specificWarranties": null,
  "notIncludedWarranties": "souscription.assurancev2.alternative.garantiesCommunNonInclus",
  "refuseInfoTitle": "souscription.assurancev2.alternative.refus.titre",
  "refuseInfoDetail": "souscription.assurancev2.alternative.refus.detail",
  "refuseCTA": "souscription.assurancev2.alternative.refus.cta",
  "pdf": "souscription.assurancev2.alternative.pdf",
  "insuranceNote": "souscription.assurancev2.alternative.assuranceNote"
}
