{
  "id": "simu_vac",
  "sysType": "simu_vac",
  "screenOptions": {
    "legal-notices": {
      "value": "https://recette.esigate.sofinco.fr/sites/partners/home.labelsAction.do?path=ln&partner=web-em&route=simu_vac",
      "description": "legal notices link"
    },
    "credit-type": {
      "value": "LOAN",
      "description": "credit type (REVOLVING/LOAN)"
    },
    "messages-route": {
      "value": "https://recette.esigate.sofinco.fr/sites/partners/home.labelsAction.do?app=creditPartner&path=lb&partner=web-em&route=simu_vac",
      "description": "route messages link"
    }
  },
  "steps": [
    {
      "pathId": "simulation",
      "screenOptions": {
        "editable-amount": {
          "value": true,
          "description": "editable amount in simulator"
        },
        "min-amount": {
          "value": 500,
          "description": "Minimum amount that can be entered in simulator"
        },
        "max-amount": {
          "value": 1000,
          "description": "Minimum amount that can be entered in simulator"
        }
      },
      "noReturn": false,
      "routed": true,
      "steps": []
    }
  ],
  "_links": {
    "self": "http://localhost:8080/remoting/rest/applications/creditPartner/partners/web_em/routes/simu_vac",
    "parameters": "http://localhost:8080/remoting/rest/applications/creditPartner/partners/web_em/routes/simu_vac/parameters/"
  }
}
