{
  "APIM_BACK_Token": "b3VubEthTGNYYkNvUjF5ZXhhcXRIdFRIbkFzYTpHMXowTWY2ekN6RjlZdWF4Y3Foc2YyelgyQU1h",
  "APIM_FRONT_Token": "RGJYQkZnZmkwTWh5MExOYW9qU2hVRWtyc0h3YTpKNXVFT0t2Z1p5SjBIdHoxYUFZdFRRQ3F1aWNh",
  "APPLICATION_ID": "creditPartner",
  "APIM_FRONT_Url": "https://rct-api.sofinco.fr",
  "APIM_BACK_Url": "https://rct-gw-intranet-api.ca-cf.gca",
  "API_Url": "https://rct-api.sofinco.fr",
  "API_REF_URL": "https://rct-api-ref.sofinco.fr",
  "API_SE_CHOICE": "https://recette.esigate.sofinco.fr/sites/sofinco/home.seChoice.do",
  "API_CRBP": "https://recette.esigate.sofinco.fr/sites/sofinco/home.crbp.do",
  "UPLOAD_Url": "",
  "LOG4JS_PATH": "recette",
  "REFRESH_TOKEN_URL": "token/refresh",
  "VALIDATE_TOKEN_URL": "token/validate",
  "EULERIAN_Url": "",
  "DEFAULT_GTM": "MRLH2KP",
  "LOADER_MESSAGE": "Nous accédons à votre espace de demande de crédit,",
  "RECAPTCHA_SITE_KEY": "6LfbgP8UAAAAALIptLhz11l65o6Uq-DyiUZbQORx",
  "API_SOUSCRIPTION_VERSION": "v1.2",
  "API_CONF_BASE_URL": "https://rct-api.sofinco.fr",
  "EXPIRED_TOKEN_DURATION": 3600,
  "EXPIRED_REFRESH_TOKEN_DURATION": 3590,
  "DATA_SIGNATURE_SALT": "f90764c9-5930-4567-b4d2-d72f71196519",
  "log": {
    "appLevel": "INFO",
    "httpLevel": "INFO"
  },
  "SERVER_PORT": 3000
}
