{
  "warranties": "souscription.assurance.garanties.jeune",
  "title": "souscription.assurance.garantieTitre",
  "info": "souscription.assurance.garantieInfo",
  "infoDetail": "souscription.assurance.garantieDetailInfo",
  "confirm": "souscription.assurance.garantieConfirme",
  "insuranceNote": "souscription.assurance.assuranceNote"
}
