{
  "id": "web_redoute",
  "screenOptions": {
    "primary-color": {
      "value": "personnalisation.couleurs.primaire",
      "description": "primary color"
    },
    "messages-partner": {
      "value": "https://recette.esigate.sofinco.fr/sites/partners/home.labelsAction.do?app=creditPartner&path=lb&partner=web-redoute",
      "description": "partner messages link"
    },
    "quaternary-color": {
      "value": "personnalisation.couleurs.quaternaire",
      "description": "quaternary color"
    },
    "site": {
      "value": "credit-redoute-preprod",
      "description": "Eulerian tag for rtgsite"
    },
    "secondary-color": {
      "value": "personnalisation.couleurs.secondaire",
      "description": "secondary color"
    },
    "resources-path": {
      "value": "https://recette.esigate.sofinco.fr/files/live/sites/partners/files/web_redoute/resources",
      "description": "resources path to use for icons, logos,..."
    },
    "tokenOwner": {
      "value": "CLIENT_PARTNERS_WEB_REDOUTE",
      "description": "tokenOwner to use with BusinessDataTransfer"
    },
    "theme": {
      "value": "SOFINCO",
      "description": "CSS theme"
    },
    "tertiary-color": {
      "value": "personnalisation.couleurs.tertiaire",
      "description": "tertiary color"
    },
    "messages-default": {
      "value": "https://recette.esigate.sofinco.fr/sites/partners/home.labelsAction.do?app=creditPartner&path=lb&partner=default",
      "description": "default messages link"
    },
    "quintinary-color": {
      "value": "personnalisation.couleurs.quinquenaire",
      "description": "quintinary color"
    },
    "show-contact-module": {
      "value": true,
      "description": "contact module displayed"
    },
    "simulator-panel-enabled": {
      "value": true,
      "description": "enable simulator panel feature"
    },
    "simulator-panel-email-enabled": {
      "value": false,
      "description": "Enable simulator recap sending by email"
    },
    "show-contact-call-button": {
      "value": true,
      "description": "Enable contact module's call feature"
    }
  },
  "_links": {
    "self": "http://localhost:8080/remoting/rest/applications/creditPartner/partners/web_redoute",
    "parameters": "http://localhost:8080/remoting/rest/applications/creditPartner/partners/web_redoute/parameters/",
    "routes": "http://localhost:8080/remoting/rest/applications/creditPartner/partners/web_redoute/routes/"
  }
}
