{
  "creditPartner": {
    "default": {
      "fr": {
        "simulation": {
          "Footer": {
            "qualityText1_1": "Obtenez votre accord de prêt en quelques clics après votre inscription, et vos fonds en 48h<sup>2</sup>",
            "star1_1": "<sup>*</sup> Offre valable du 01/01/2020 au 31/03/2020 sur 3 mois, 5 mois et 10 mois.",
            "star2_1": "<sup>**</sup> Offre de report de la première mensualité : vous commencez à rembourser {nbMois} mois après la date de livraison du bien. Offre réservée aux particuliers pour toute souscription à une vente à crédit. Le calcul des intérêts démarre à compter de la date de livraison du bien. Au-delà des {nbMois} mois, vous remboursez chaque mois vos mensualités aux conditions habituelles de votre contrat. Le report de mensualités allonge la durée de remboursement et augmente le coût du crédit.",
            "indice1": "<sup>1.</sup> Taux Annuel Effectif Global",
            "indice2": "<sup>2.</sup> Offre de crédit accessoire à une vente réservée aux particuliers, sous réserve d’acceptation par CA Consumer Finance prêteur dont Sofinco est une marque – 1 rue Victor Basch , CS 70 001, 91068 Massy Cedex. SA au capital de 554 482 422 €, 542 097 522 RCS Evry. Intermédiaire d’assurance inscrit à l’ORIAS sous le N° 07 008 079 (www.orias.fr). Assurances facultatives souscrites auprès de CACI LIFE Dac (Décès), CACI NON LIFE Dac (Perte Totale et Irréversible d’Autonomie, Invalidité Permanente et Totale, Invalidité Temporaire Totale de Travail) et garantie vol ou destruction accidentelle totale des biens. Vous disposez d'un droit légal de rétractation."
          },
          "OfferDetails": {
            "mentionReport": "En cas de report sur votre offre, la durée totale de votre prêt sera allongée de {nbMois} mois. Les taux pendant la période de report sont à 0%.",
            "interetsReportInclus": "Incluant les intérêts de report",
            "taegFixe_1": "TAEG<sup>1</sup> Fixe",
            "taegRevisable_1": "TAEG<sup>1</sup> Révisable"
          },
          "OfferSubmit": {
            "legendeReport": "Incluant les intérêts de report",
            "taegLabelFixed_1": "TAEG<sup>1</sup> Fixe",
            "taegLabelRevisable_1": "TAEG<sup>1</sup> Révisable"
          },
          "OfferSubmitMobile": {
            "interetsReportInclus": "Incluant les intérêts de report",
            "mentionReport": "En cas de report sur votre offre, la durée totale de votre prêt sera allongée de {nbMois} mois. Les taux pendant la période de report sont à 0%.",
            "mentionAssurance": "L’assurance s'ajoute à vos mensualités si vous choisissez de souscrire à l'assurance sur votre offre de crédit. Son coût peut varier en fonction de votre situation personnelle."
          }
        },
        "souscription": {
          "RecapPret": {
            "tableauPartenaires": {
              "interetsReportInclus": "Incluant les intérêts de report<sup>*</sup>",
              "horsAssurance": "Hors assurance facultative"
            }
          },
          "detailsOffre": {
            "texteReport": "*Offre de report de la première mensualité : vous commencez à rembourser {nbMois} mois après la date de livraison du bien. Offre réservée aux particuliers pour toute souscription à une vente à crédit. Le calcul des intérêts démarre à compter de la date de livraison du bien. Au-delà des {nbMois} mois, vous remboursez chaque mois vos mensualités aux conditions habituelles de votre contrat. Le report de mensualités allonge la durée de remboursement et augmente le coût du crédit.",
            "interetsReportInclus": "Incluant les intérêts de report<sup>*</sup>",
            "horsAssurance": "Hors assurance facultative"
          }
        }
      }
    },
    "web-apple": {
      "routes": {
        "vac": {
          "fr": {
            "souscription": {
              "RecapPret": {
                "mentionReport": "*Offre de report de la première mensualité : vous commencez à rembourser {nbMois} mois après la date de livraison du bien. Offre réservée aux particuliers pour toute souscription à une vente à crédit. Le calcul des intérêts démarre à compter de la date de livraison du bien. Au-delà des {nbMois} mois, vous remboursez chaque mois vos mensualités aux conditions habituelles de votre contrat. Le report de mensualités allonge la durée de remboursement et augmente le coût du crédit."
              }
            }
          }
        }
      }
    },
    "web-decathlon": {
      "routes": {
        "vac": {
          "fr": {
            "souscription": {
              "RecapPret": {
                "mentionReport": "*Offre de report de la première mensualité : vous commencez à rembourser {nbMois} mois après la date de livraison du bien. Offre réservée aux particuliers pour toute souscription à une vente à crédit. Le calcul des intérêts démarre à compter de la date de livraison du bien. Au-delà des {nbMois} mois, vous remboursez chaque mois vos mensualités aux conditions habituelles de votre contrat. Le report de mensualités allonge la durée de remboursement et augmente le coût du crédit."
              }
            }
          }
        }
      }
    },
    "web-em": {
      "routes": {
        "vac": {
          "fr": {
            "souscription": {
              "RecapPret": {
                "mentionReport": "*Offre de report de la première mensualité : vous commencez à rembourser {nbMois} mois après la date de livraison du bien. Offre réservée aux particuliers pour toute souscription à une vente à crédit. Le calcul des intérêts démarre à compter de la date de livraison du bien. Au-delà des {nbMois} mois, vous remboursez chaque mois vos mensualités aux conditions habituelles de votre contrat. Le report de mensualités allonge la durée de remboursement et augmente le coût du crédit."
              }
            }
          }
        }
      }
    },
    "web-voltalia": {
      "routes": {
        "vac": {
          "fr": {
            "souscription": {
              "RecapPret": {
                "mentionReport": "*Offre de report de la première mensualité : vous commencez à rembourser {nbMois} mois après la date de livraison du bien. Offre réservée aux particuliers pour toute souscription à une vente à crédit. Le calcul des intérêts démarre à compter de la date de livraison du bien. Au-delà des {nbMois} mois, vous remboursez chaque mois vos mensualités aux conditions habituelles de votre contrat. Le report de mensualités allonge la durée de remboursement et augmente le coût du crédit."
              }
            }
          }
        }
      }
    }
  },
  "se-sofinco": {
    "default": {
      "fr": {
        "simulation": {
          "tableauPartenaires": {
            "interetsReportInclus": "Incluant les intérêts de report<sup>*</sup>",
            "horsAssurance": "Hors assurance facultative"
          }
        }
      }
    },
    "web-apple": {
      "routes": {
        "vac": {
          "fr": {
            "SideBar": {
              "recapContent": "*Offre de report de la première mensualité : vous commencez à rembourser {nbMois} mois après la date de livraison du bien. Offre réservée aux particuliers pour toute souscription à une vente à crédit. Le calcul des intérêts démarre à compter de la date de livraison du bien. Au-delà des {nbMois} mois, vous remboursez chaque mois vos mensualités aux conditions habituelles de votre contrat. Le report de mensualités allonge la durée de remboursement et augmente le coût du crédit."
            }
          }
        }
      }
    },
    "web-decathlon": {
      "routes": {
        "vac": {
          "fr": {
            "SideBar": {
              "recapContent": "*Offre de report de la première mensualité : vous commencez à rembourser {nbMois} mois après la date de livraison du bien. Offre réservée aux particuliers pour toute souscription à une vente à crédit. Le calcul des intérêts démarre à compter de la date de livraison du bien. Au-delà des {nbMois} mois, vous remboursez chaque mois vos mensualités aux conditions habituelles de votre contrat. Le report de mensualités allonge la durée de remboursement et augmente le coût du crédit."
            }
          }
        }
      }
    },
    "web-em": {
      "routes": {
        "vac": {
          "fr": {
            "SideBar": {
              "recapContent": "*Offre de report de la première mensualité : vous commencez à rembourser {nbMois} mois après la date de livraison du bien. Offre réservée aux particuliers pour toute souscription à une vente à crédit. Le calcul des intérêts démarre à compter de la date de livraison du bien. Au-delà des {nbMois} mois, vous remboursez chaque mois vos mensualités aux conditions habituelles de votre contrat. Le report de mensualités allonge la durée de remboursement et augmente le coût du crédit."
            }
          }
        }
      }
    },
    "web-voltalia": {
      "routes": {
        "vac": {
          "fr": {
            "SideBar": {
              "recapContent": "*Offre de report de la première mensualité : vous commencez à rembourser {nbMois} mois après la date de livraison du bien. Offre réservée aux particuliers pour toute souscription à une vente à crédit. Le calcul des intérêts démarre à compter de la date de livraison du bien. Au-delà des {nbMois} mois, vous remboursez chaque mois vos mensualités aux conditions habituelles de votre contrat. Le report de mensualités allonge la durée de remboursement et augmente le coût du crédit."
            }
          }
        }
      }
    }
  },
  "obsoleteNextVersion": [
    "simulation.Footer.qualityText1",
    "simulation.Footer.star1",
    "simulation.Footer.star2",
    "simulation.OfferSubmit.taegLabelRevisable",
    "simulation.OfferSubmit.taegLabelFixe",
    "simulation.OfferDetails.taegLabelRevisable",
    "simulation.OfferDetails.taegLabelFixe"
  ]
}
